%YAML 1.1
%TAG !u! tag:unity3d.com,2011:
--- !u!1 &962775771496954773
GameObject:
  m_ObjectHideFlags: 0
  m_CorrespondingSourceObject: {fileID: 0}
  m_PrefabInstance: {fileID: 0}
  m_PrefabAsset: {fileID: 0}
  serializedVersion: 6
  m_Component:
  - component: {fileID: 962775771496954775}
  - component: {fileID: 962775771496954774}
  m_Layer: 0
  m_Name: HandPresenceRight
  m_TagString: Untagged
  m_Icon: {fileID: 0}
  m_NavMeshLayer: 0
  m_StaticEditorFlags: 0
  m_IsActive: 1
--- !u!4 &962775771496954775
Transform:
  m_ObjectHideFlags: 0
  m_CorrespondingSourceObject: {fileID: 0}
  m_PrefabInstance: {fileID: 0}
  m_PrefabAsset: {fileID: 0}
  m_GameObject: {fileID: 962775771496954773}
  m_LocalRotation: {x: 0, y: 0, z: 0, w: 1}
  m_LocalPosition: {x: 0, y: 0, z: 0}
  m_LocalScale: {x: 1, y: 1, z: 1}
  m_Children: []
  m_Father: {fileID: 0}
  m_RootOrder: 0
  m_LocalEulerAnglesHint: {x: 0, y: 0, z: 0}
--- !u!114 &962775771496954774
MonoBehaviour:
  m_ObjectHideFlags: 0
  m_CorrespondingSourceObject: {fileID: 0}
  m_PrefabInstance: {fileID: 0}
  m_PrefabAsset: {fileID: 0}
  m_GameObject: {fileID: 962775771496954773}
  m_Enabled: 1
  m_EditorHideFlags: 0
  m_Script: {fileID: 11500000, guid: 3d424478cb683c3429fe7529bf795297, type: 3}
  m_Name: 
  m_EditorClassIdentifier: 
  activeHands: 1
  controllerPrefab: {fileID: 100014, guid: a5ff41a7886a0ba429cf9e8b9620d2e9, type: 3}
  handPrefab: {fileID: 7281522793019309027, guid: 1727188dba8c3504fb272b3944b7e69c,
    type: 3}
  inputDeviceCharacteristics: 576
